certifi==2021.10.8
cffi==1.15.0
charset-normalizer==2.0.7
cryptography==35.0.0
idna==3.3
ntlm-auth==1.5.0
pycparser==2.20
pywinrm==0.4.2
requests==2.26.0
requests-ntlm==1.1.0
six==1.16.0
urllib3==1.26.7
xmltodict==0.12.0
